id,country,poor
9135,B,0.0482067210339362
117,B,0.04440038081703985
29085,B,0.00795126218702211
55442,B,0.062315931820484366
29281,B,0.011035477710918763
63854,B,0.007165871192655269
87565,B,0.056238278197841204
64033,B,0.011313157789513244
395,B,0.0720899765277187
64544,B,0.0492859235873715
66639,B,0.07345904860643927
8102,B,0.014891285493738414
60204,B,0.14144540085382667
14800,B,0.15753309122404807
79821,B,0.01692165910339327
77704,B,0.20434755048222902
58191,B,0.2868935860196431
14093,B,0.012886363422333274
25901,B,0.21101337443965695
5975,B,0.01545759721337076
4689,B,0.03031276107313776
56320,B,0.102068196701389
74375,B,0.03606939525502575
49456,B,0.11768388165627545
14129,B,0.0414508730734688
89232,B,0.28299693982816654
65412,B,0.1417832656411511
88120,B,0.051680812252394785
93808,B,0.02587170583409535
8571,B,0.03242198179726983
39323,B,0.033375713887317096
375,B,0.05735991255171724
84199,B,0.019459549762685064
35382,B,0.030126220726688118
82785,B,0.10195602861269766
60951,B,0.01379608839035257
36193,B,0.02153873852154776
65574,B,0.018343737627085455
51811,B,0.03533600052860139
12078,B,0.08362173810216394
84891,B,0.2534881485554938
88811,B,0.011840264522728657
23433,B,0.01803772845320892
64166,B,0.11078579449564925
14336,B,0.03565320600814126
90313,B,0.022546557348052262
92817,B,0.016440958028535048
10862,B,0.005845187969153377
17583,B,0.08714066362956971
12346,B,0.02291758730690248
94589,B,0.09510676723604349
83464,B,0.13245321770687898
30322,B,0.04886609975647864
30945,B,0.004607628386065884
28906,B,0.028111247997413047
7910,B,0.30544100473559094
19793,B,0.05901678875123991
49466,B,0.009287847884760878
41835,B,0.10721882024626471
79912,B,0.014326206665010405
43092,B,0.002696512302338641
53361,B,0.1499438801304361
29411,B,0.014262617531632616
67132,B,0.03769415714410232
34945,B,0.13746995247196853
11931,B,0.055722036896991685
29321,B,0.08662576223291557
75126,B,0.03980182009851284
16690,B,0.022281160072873996
85412,B,0.03525572592619501
47328,B,0.13474003275103452
68185,B,0.016099713368473777
33468,B,0.043352642962152015
12074,B,0.027824362266329696
38765,B,0.09343346402495531
56706,B,0.03994876413571869
78944,B,0.030538934625660256
64666,B,0.05077345852047766
11681,B,0.16190611466591914
3832,B,0.0534890015780777
57455,B,0.215415501898744
84406,B,0.37195808987204354
23936,B,0.030766285399134154
79048,B,0.012920601186846346
71266,B,0.3760043746080732
4285,B,0.03677883717403793
52733,B,0.04419221254071608
75392,B,0.657594906090168
42611,B,0.012542355031697282
58206,B,0.055971044071622865
50549,B,0.08947834792124965
57069,B,0.04489738599406559
49621,B,0.4426707534548793
90244,B,0.044609956850368476
69756,B,0.005581873244669595
36400,B,0.023842532257535944
2988,B,0.051700050572428415
21136,B,0.369887129833927
23656,B,0.0613229290320236
90540,B,0.02405922211496141
73089,B,0.011326216091166802
10106,B,0.03779804297811259
67913,B,0.011848662919292399
48993,B,0.005329254251755939
26328,B,0.0767926041098966
46256,B,0.04266034819705514
9036,B,0.02375652730788186
58307,B,0.027831738151956744
64600,B,0.012542317775703506
93494,B,0.045351857012751684
40365,B,0.66512355901439
60596,B,0.11449317301138488
55750,B,0.2122330798914959
63926,B,0.04300356778800504
20369,B,0.14123520185097274
12171,B,0.06257236204231231
86726,B,0.035845824237379184
25785,B,0.14107205565470893
76981,B,0.04903557091827351
56696,B,0.010667033056075753
52969,B,0.015960971088519665
4100,B,0.012177096913708699
97595,B,0.02279826222982818
84004,B,0.023823236754950853
80808,B,0.017938034540074605
3251,B,0.05096061706207684
18309,B,0.05610819408243773
68583,B,0.29667794899964867
27159,B,0.03347890849219962
31171,B,0.04583449936540711
54713,B,0.1831597737924314
62154,B,0.0026253012334370076
81070,B,0.030184669313262046
30142,B,0.04455134981212891
78616,B,0.04511206636317242
42466,B,0.16101253498623752
93444,B,0.18998752834798183
94043,B,0.1593865998969566
15677,B,0.008371783936335826
95093,B,0.033082724675006336
86898,B,0.03384181635315025
94718,B,0.0037234301740135677
66619,B,0.06554911273017981
34044,B,0.04709550268696383
50853,B,0.020040028805235574
54875,B,0.0092564699438514
63792,B,0.07274773962266644
11417,B,0.01315364823752233
810,B,0.058286917001300016
17828,B,0.08433912260267375
14410,B,0.03778875539322451
85183,B,0.045620512053976596
77144,B,0.060561592552656994
96185,B,0.034613725841649456
83821,B,0.020374591857681416
34132,B,0.01971280974669161
28985,B,0.08346691270288559
48386,B,0.033344908541446935
42914,B,0.02879677237146693
63566,B,0.035834015216963194
36054,B,0.01163953088446365
7770,B,0.011483505950698325
48544,B,0.05235285329099535
16133,B,0.006049923059248142
63046,B,0.16148103937879096
11501,B,0.014155936578513396
51103,B,0.019114656240536928
48437,B,0.01506749281027078
78655,B,0.005050693043311147
33853,B,0.2957016413480278
96,B,0.05695024026362105
51959,B,0.00786843213399261
67169,B,0.022239741641406394
45631,B,0.0233285379812155
46147,B,0.009215230527152422
50883,B,0.14485165573994754
40472,B,0.015254302314648725
72956,B,0.014714266131685244
64859,B,0.18981317059470126
34693,B,0.14803874079315485
9364,B,0.0348475756753846
69727,B,0.04171673891724051
64314,B,0.049030956181409964
24878,B,0.03872987987507673
34388,B,0.16944242049769795
97476,B,0.0344886909735475
34921,B,0.16165336465158445
13314,B,0.14048334298710166
18970,B,0.09539403231756324
37507,B,0.01292436109033772
87496,B,0.19890865957752416
58604,B,0.019584110448035943
30515,B,0.15546741625039961
44906,B,0.014897504748426582
93239,B,0.4439519453596783
76112,B,0.4221901187006813
6456,B,0.01824821345372285
53927,B,0.04407684070172697
64186,B,0.03746269316817181
63138,B,0.5316686880442396
82015,B,0.2655375932054857
63170,B,0.027676947199391653
54807,B,0.13425297521533427
87793,B,0.026413655281695952
97301,B,0.014228206213298867
232,B,0.053857024686768125
26634,B,0.07215840524040203
85867,B,0.39276375014001447
57325,B,0.1152261086584669
35632,B,0.011068250205809853
47840,B,0.2705374786580388
9274,B,0.08241443613164477
284,B,0.07021930295496792
22742,B,0.0823308334448532
53934,B,0.06861821196495964
36966,B,0.6443064049292008
42608,B,0.041559403479629164
32006,B,0.036517654677383854
59632,B,0.21124676439516404
4497,B,0.020355425151579013
42984,B,0.037003083522833796
80997,B,0.008742711308305721
45573,B,0.022247067441521197
63859,B,0.4402906224672035
60895,B,0.024141793726789883
7989,B,0.013251478060962696
31665,B,0.021586457924694536
72500,B,0.06045835038145721
70793,B,0.22723269146948885
42953,B,0.011505268274891673
14944,B,0.13466880084399122
93417,B,0.005386119805308054
48266,B,0.054028339789016736
71348,B,0.11818653110035611
32606,B,0.06445057555758228
41107,B,0.17375404720065427
28001,B,0.028103114843909847
8641,B,0.04237338000155747
13829,B,0.04627967644777289
16375,B,0.05961581901672302
56091,B,0.0227043241320255
65795,B,0.014715346328402676
74581,B,0.003923759328962087
67780,B,0.22197679891539548
45588,B,0.01921990287378639
10436,B,0.013333763569477668
59581,B,0.075690360031202
98935,B,0.0953646769066238
9766,B,0.043403321108958164
81489,B,0.26689004700032176
97239,B,0.10354905610353955
14815,B,0.033471129527855116
90111,B,0.04417845417745638
97125,B,0.06982152614231221
72470,B,0.029589030529643748
69539,B,0.023342279868873973
1477,B,0.1373532438141711
25810,B,0.44887614865171044
60760,B,0.034947761536314854
86709,B,0.05478676312104216
71675,B,0.008270828218272668
88914,B,0.06778287395811508
3596,B,0.061135695324633914
35449,B,0.04520904727502469
22788,B,0.03388941749641498
81414,B,0.08995877694638917
54016,B,0.06240134107208893
13416,B,0.23463833665518877
95135,B,0.11263994358432779
11145,B,0.05099521801272693
34468,B,0.055610792591857756
98924,B,0.029114979462955364
66419,B,0.03797869090948699
42597,B,0.022329333405750933
59861,B,0.01072457824651017
47536,B,0.0944724578190818
24029,B,0.09035327766525746
72289,B,0.07799957702845223
42424,B,0.003472601833515642
14644,B,0.054750258804434716
54351,B,0.013742357276653417
26585,B,0.014107374787056166
85846,B,0.017340910545805707
75832,B,0.06634650412423305
90446,B,0.2485268783873705
19509,B,0.0064333749083060445
36663,B,0.09870212575426969
65640,B,0.02869240544662006
33800,B,0.047879363974089734
82292,B,0.028119257139969194
63919,B,0.07597250695374068
78108,B,0.2857378206996344
23218,B,0.16237309818942192
46507,B,0.01625872528438304
12881,B,0.031467278948663864
6561,B,0.036543025173219
92812,B,0.06426538888760312
90133,B,0.08036230394067911
33315,B,0.006954502282853014
51492,B,0.034009296440414935
59516,B,0.012990152953857179
98682,B,0.05049583152738919
42547,B,0.02016784670925622
63690,B,0.01812567580004062
4525,B,0.057269374172911225
63244,B,0.04335631815381062
81839,B,0.01589865292868531
49052,B,0.021049642091350733
21753,B,0.01994080814746573
44180,B,0.010232683792267296
30571,B,0.04788458645215725
88166,B,0.07766865168187756
2655,B,0.012280015014094238
15861,B,0.016957982851266276
80736,B,0.006579812851853236
39751,B,0.06572013053300614
58976,B,0.006396289497428365
80715,B,0.05961168231734578
40036,B,0.03625841249246313
44413,B,0.02386205225731021
51607,B,0.10292132828272396
76740,B,0.04693889466016822
35703,B,0.14023585819007733
58957,B,0.022458579379447924
65131,B,0.011625640774570846
17145,B,0.02633883936419871
78307,B,0.05680471319994861
70568,B,0.013455272224956953
95071,B,0.033989724566397574
26730,B,0.15896732873665437
63116,B,0.012693877397529096
26574,B,0.07324350381062515
26902,B,0.11346542933964049
45531,B,0.0659887359204283
97446,B,0.019330274054414703
88853,B,0.015536968184023043
75231,B,0.034005410226884566
74483,B,0.3549571844764733
47532,B,0.10515774206325633
20768,B,0.04959711154956932
11136,B,0.04242517572455327
48147,B,0.028864478687938018
95701,B,0.06531712300161452
59049,B,0.0912313759066111
55032,B,0.04255386578343905
82180,B,0.015708318825184343
13354,B,0.09145650134432701
98827,B,0.04127114089327165
78865,B,0.004346153600299179
40806,B,0.26167012531739414
43771,B,0.02094049378037286
71024,B,0.013996337168490608
80469,B,0.09790545659835492
67256,B,0.14421768378243344
96808,B,0.022138332847055
85553,B,0.04456350302914676
82047,B,0.4760217285802352
31570,B,0.09086183411889205
68809,B,0.23275360306909787
74267,B,0.251695325563996
7631,B,0.05928330581923072
75717,B,0.2882950289311287
56647,B,0.006456621245891745
59988,B,0.11699672811330407
76348,B,0.3219876457397685
53732,B,0.02719232906455378
89258,B,0.005361938023122962
9157,B,0.04404229545497368
51900,B,0.11549638789310754
22388,B,0.015823799810797057
37602,B,0.019057653188040164
60793,B,0.018532852617982425
16471,B,0.018295473770073463
86052,B,0.007795146209753973
49860,B,0.14022112105629062
56050,B,0.0795808026296669
1066,B,0.041700342941706915
23535,B,0.10087871445486694
42035,B,0.04203678707775098
91940,B,0.23165173196975167
63799,B,0.01716755931650552
59640,B,0.038562839040751855
4661,B,0.30411971009217065
83318,B,0.13472013106229197
61649,B,0.013047957238655395
79379,B,0.05067795026220131
48595,B,0.06731083608903245
75900,B,0.021615121995542736
51697,B,0.021046148197896082
13199,B,0.15377730072393206
25090,B,0.04283643870112359
47572,B,0.02920916002119063
37138,B,0.21008250371959694
91440,B,0.03591882157311477
3485,B,0.023989640415498326
79982,B,0.03477763515206052
36702,B,0.010163712952394962
64581,B,0.008669518247725065
87498,B,0.009557082365932385
89020,B,0.021142915502684538
61192,B,0.00914906363294604
65712,B,0.12310009537350977
83514,B,0.07652757204258842
7523,B,0.03454746143602415
31365,B,0.06392833307586239
38918,B,0.49844911682733756
77069,B,0.018176777646775912
35129,B,0.007950550048034365
83429,B,0.05169589802395774
82947,B,0.028136348501706942
16246,B,0.02619789866942537
60321,B,0.029828981428994792
21083,B,0.02231310850418033
55794,B,0.08308003858913726
9658,B,0.025380635677384546
30964,B,0.014381109128674744
75937,B,0.039790181732639485
28980,B,0.03564142256001616
6322,B,0.010286361553357506
88287,B,0.01301260465718276
66667,B,0.09195252567351879
55501,B,0.016725264038868252
53837,B,0.054573897025847494
81174,B,0.03792560660234723
53756,B,0.1201277513865176
71240,B,0.02553347152842107
56417,B,0.05343244925833456
19601,B,0.019589567888712113
86377,B,0.2137853836101226
74990,B,0.02889866416445962
68883,B,0.00724359697536883
20459,B,0.017998905877131714
88083,B,0.03263477573626639
87642,B,0.0989914188531896
66631,B,0.29416873567304097
89126,B,0.11434344018722431
30318,B,0.059609796863096816
3600,B,0.03002614192677312
50242,B,0.015940600053991793
80986,B,0.016434784444643954
73091,B,0.029805227866995767
10990,B,0.3330587685373887
16783,B,0.03477589860585042
46318,B,0.016717802434341667
50548,B,0.4341259767463442
14726,B,0.040345342016884445
4292,B,0.022916020646064513
53321,B,0.019109603339141953
27169,B,0.023689238338837612
32575,B,0.04278807771059616
84443,B,0.0406956905964673
86942,B,0.03096862187688611
73706,B,0.016101010324488022
97123,B,0.8881280483276641
17171,B,0.07190373567313148
5399,B,0.159623395439389
97084,B,0.0027478684387835382
45143,B,0.03637856226187515
23211,B,0.12557067812955444
54508,B,0.10304592079312097
17742,B,0.18322509842161852
86750,B,0.01925006320843441
31950,B,0.02815623169758145
17724,B,0.04133924394675231
23387,B,0.02434284237010474
91414,B,0.20129892649500936
64280,B,0.1048746598804643
18039,B,0.08052428924874669
40749,B,0.21351318716414594
36442,B,0.039500971168840444
93920,B,0.047845964262889513
80481,B,0.0954490786468251
14778,B,0.0454531866011779
33043,B,0.1226178428036712
82190,B,0.13787212638091212
44028,B,0.05365214852401026
8627,B,0.4122299217463853
58135,B,0.023904736815225192
61436,B,0.029225569051559087
4570,B,0.0042539917429348225
26823,B,0.1154997531162072
19187,B,0.016038498438737343
6344,B,0.018002849424765634
6791,B,0.09226998950389073
57093,B,0.025965423477790264
43846,B,0.061185527414329796
54397,B,0.00691510358123046
86358,B,0.5887331127792585
17990,B,0.018403635776096182
42964,B,0.028791839875977113
24809,B,0.03344176380422009
54232,B,0.012159784814127562
30777,B,0.03496543685115622
4467,B,0.004664513405369376
7909,B,0.11821450523761727
34185,B,0.08968793509068505
61249,B,0.026742900054471393
47382,B,0.06790409407706959
55510,B,0.03814036689301072
40463,B,0.06573499250570145
14983,B,0.025538789278706255
27092,B,0.0149889282039807
25539,B,0.07134051665661319
75747,B,0.03848082011164165
86111,B,0.013978489289803973
34192,B,0.10548482133980219
65285,B,0.09552719512758272
76935,B,0.009667978006430942
67572,B,0.045879329471642465
73194,B,0.09682847176347036
60005,B,0.11332475421868878
6668,B,0.16543735626286732
89237,B,0.02973881452928892
91091,B,0.019863645865761496
34243,B,0.006147498335612014
39819,B,0.02180042051601626
13759,B,0.06897902051278018
92320,B,0.015310369079063224
72399,B,0.035220196238208504
1514,B,0.003972847672225462
75567,B,0.01218965058752205
95710,B,0.02518930924100401
93632,B,0.011178984036858916
57909,B,0.08825449853539101
30465,B,0.04108397520197009
14098,B,0.058244136004093706
63680,B,0.0969301644843687
22559,B,0.03280870326884269
34193,B,0.11920419282576844
58737,B,0.08733227349704285
82195,B,0.010877405606146067
73307,B,0.1926348622853174
18866,B,0.042425380590886554
62410,B,0.008383127983432158
19731,B,0.042616872449467366
7153,B,0.009110622764211967
6762,B,0.12276881628285581
1147,B,0.13492910545764517
13079,B,0.03423356851083732
62611,B,0.01271870422180709
11677,B,0.06634900546497804
86312,B,0.03942905487778303
63881,B,0.07102411678478836
16423,B,0.04241764588407208
37934,B,0.3505199427535459
56466,B,0.18594589935353545
89856,B,0.02715583628812793
48290,B,0.007006241914378977
8862,B,0.19477421700411152
92229,B,0.04385197526279375
75795,B,0.16189459119302613
41523,B,0.05845352004240477
71563,B,0.029460773093791505
6770,B,0.018280808862582452
23676,B,0.01508066027891927
84634,B,0.08982375409375656
69812,B,0.10122601192107165
19628,B,0.14345793566829462
78698,B,0.665422240626758
84043,B,0.020753062877845174
17846,B,0.01548697672507653
13743,B,0.03283783244542201
21688,B,0.019071718113275748
56646,B,0.0818432834303721
68850,B,0.04290720957058352
77760,B,0.02525869680802741
28856,B,0.07892632270220588
71657,B,0.17435092822856582
54453,B,0.16379437843166963
30326,B,0.0350349476811395
58541,B,0.019212817156726212
36699,B,0.14090763443249013
26854,B,0.05623993580337081
61931,B,0.027150368218872154
10260,B,0.023420566377328065
97951,B,0.009943736403891085
80120,B,0.01279281337793112
54720,B,0.03120906619844366
17333,B,0.010847108695475486
26998,B,0.023141268268658203
13039,B,0.007755202373116536
32320,B,0.07588507680903743
52131,B,0.02135795588984642
33824,B,0.10627452271373662
3609,B,0.02718263050877673
18175,B,0.017609210091537087
73631,B,0.03403166861427601
47466,B,0.03332168315529369
97757,B,0.011239972491166967
97867,B,0.6376770233313864
7164,B,0.2863564286896011
28559,B,0.021771013571559993
74610,B,0.011082007303057766
99340,B,0.07632745531162424
80831,B,0.046974820789894386
51896,B,0.04098253544671344
86640,B,0.02043762132538728
32686,B,0.2922285399748418
68886,B,0.022255387920072346
87569,B,0.08642924477899473
27659,B,0.025181251511069612
63843,B,0.015145665567524167
25543,B,0.027471911486331307
96540,B,0.02035450089889515
97353,B,0.019156645595052837
23948,B,0.011661856272177126
84756,B,0.02616336757915489
32878,B,0.013382984248314486
54445,B,0.020371086116861257
29314,B,0.03515444881575592
37537,B,0.020863022406728545
66314,B,0.06376144450318771
34385,B,0.09112347929684902
64022,B,0.01539389864378605
84378,B,0.021445123378786894
39065,B,0.04352831030062832
33028,B,0.0495872349532517
11124,B,0.025207791305716026
17290,B,0.5807784414721847
58198,B,0.027335115399809304
21799,B,0.32735126817179017
48996,B,0.11211607275825745
58698,B,0.019578970094813363
21978,B,0.04711504510920125
56673,B,0.025310138264401493
51691,B,0.14724017471268797
49662,B,0.007432128239441518
83991,B,0.09209071751385065
51083,B,0.04399436485665617
6045,B,0.019715115575363186
72969,B,0.04374837466637261
53078,B,0.04744470886893145
91604,B,0.043952865136497064
98753,B,0.010837859446822307
91403,B,0.00494669388477958
73792,B,0.12913792491662754
86149,B,0.029183440337344577
59745,B,0.023448990050698428
91412,B,0.012855182732407287
90921,B,0.0022165321902692667
78571,B,0.017124701558897955
75353,B,0.005556723463014305
68575,B,0.19011806834577405
86935,B,0.0430945670987279
42359,B,0.025928270571898792
32336,B,0.4192330561664615
49004,B,0.05991596249247589
13578,B,0.34639662755453615
61492,B,0.003873561648464217
38361,B,0.026212024548450147
86074,B,0.17244192758195218
71831,B,0.5545361145009607
22966,B,0.061067329758642465
4846,B,0.056099340217032514
64151,B,0.023529143884597377
96213,B,0.09429369523894277
84538,B,0.15412537926404224
80609,B,0.1459858528212885
56354,B,0.018012944160514095
4280,B,0.03509205685182149
71168,B,0.19505637472993123
27776,B,0.11525798365395663
16532,B,0.05647430983350131
27184,B,0.016117656944402748
46270,B,0.01866805864984635
8906,B,0.10466527043442243
12687,B,0.025817610710174733
83550,B,0.06981438996005239
69323,B,0.07687157582829238
66154,B,0.12803189550561606
78742,B,0.038397124591843225
15841,B,0.03151328418752301
49698,B,0.07790922172068471
97704,B,0.02855683239675145
24794,B,0.011828037036733935
77379,B,0.04644006501501622
36341,B,0.09019804477078038
91958,B,0.07847782181604063
67269,B,0.024164017291220537
6819,B,0.01810639319900456
89598,B,0.07402022931508268
45532,B,0.00516768948398407
64900,B,0.010482325676422861
76293,B,0.06399001959296953
5061,B,0.044884735423688926
92601,B,0.052252651431310915
28830,B,0.030741410424160433
18167,B,0.28124403391812647
54167,B,0.05020281262634427
53009,B,0.07068711854275152
32555,B,0.02270813554501188
78836,B,0.518677514663007
93844,B,0.42262418242326866
72704,B,0.05168305486721057
15561,B,0.14622139968803013
93010,B,0.1972207347206169
42076,B,0.06171386195249778
3243,B,0.1716485885485409
74569,B,0.08833134783479554
38956,B,0.16253896192940975
46157,B,0.13842296875360274
21045,B,0.279595293030423
15609,B,0.008491935259175971
91451,B,0.00861343527513176
68212,B,0.11112493804845885
2486,B,0.013451404696700283
5048,B,0.2475167988994095
62197,B,0.011612083470062016
78064,B,0.021161756235195305
15220,B,0.03521968130085171
40165,B,0.0058388676847672015
98812,B,0.18035014061556273
31462,B,0.10981157283005372
57930,B,0.005739842085378697
33379,B,0.005715226800803085
34011,B,0.010557753273755972
71323,B,0.07141493876772723
16052,B,0.10311574374527503
63365,B,0.06840797748618381
78831,B,0.1563171452389844
5749,B,0.037330663848428376
65053,B,0.028830212106475822
81737,B,0.1707581604842272
82558,B,0.10925723486196767
58880,B,0.0059070300663464255
29211,B,0.11387264244828471
32385,B,0.03891649536793105
69126,B,0.006950985548082762
88255,B,0.013030222958621428
21971,B,0.0033143655401160804
28752,B,0.02902004556215776
66858,B,0.025051540914564404
10612,B,0.023910227405608053
86420,B,0.038623590661581844
88250,B,0.04496559231108134
87138,B,0.022419322660195595
57151,B,0.12219957381913907
43233,B,0.00841185718141615
6185,B,0.025807679650205733
51367,B,0.012065303135821064
86470,B,0.014965401986086521
25472,B,0.05440906970642984
52113,B,0.012863000758287746
30485,B,0.13854293686976893
47509,B,0.02520418952520293
47119,B,0.07406347022537728
71875,B,0.2110153072537018
95835,B,0.496689847542291
81164,B,0.011490626546655136
47711,B,0.03200731213652366
47221,B,0.3133835137799446
40345,B,0.018213070139713648
48991,B,0.37025528022018334
71849,B,0.02961776999450277
26505,B,0.019578077809771985
5150,B,0.01632775993256797
44058,B,0.040453239519425754
49145,B,0.04749939598954647
15075,B,0.02142929316116668
359,B,0.002813923798748255
58711,B,0.067911301637277
7168,B,0.057227764563322424
90025,B,0.07205048397790487
16244,B,0.07300470490110532
56187,B,0.049919445282120174
6073,B,0.011980202207904014
70933,B,0.03573704821562593
40573,B,0.03574621010690777
45338,B,0.18855616620937027
61956,B,0.008578711342415458
65074,B,0.032201774910287376
62318,B,0.1619708746285814
32225,B,0.026909256388098983
36643,B,0.11402175734772438
63861,B,0.05876701826851399
63449,B,0.05328280025128521
58478,B,0.062070858469113206
56630,B,0.12335842959248455
44575,B,0.49089321530013896
24602,B,0.036968104960703206
46518,B,0.22305794058830625
31515,B,0.0032235765556001997
10047,B,0.09093729304581757
22649,B,0.01129265408847663
82704,B,0.00789983463843309
79311,B,0.03295504746468456
92381,B,0.02178985713127216
20371,B,0.0731570545563334
63533,B,0.24224302159398858
97841,B,0.3607659066990456
12530,B,0.057854705208342704
9314,B,0.03497328903536944
13864,B,0.03695659679569341
53829,B,0.1685461113284754
3745,B,0.014976068405760518
45018,B,0.13923505311918144
63596,B,0.012327804461927204
70290,B,0.06412556960615307
22873,B,0.08247047657237559
62398,B,0.13918852705434376
58726,B,0.0371873004799627
23332,B,0.041264682462476186
9208,B,0.0611871505002994
5326,B,0.07513558582524504
86423,B,0.013497397610801503
16033,B,0.011433864055005847
77918,B,0.024344778700335835
15504,B,0.043225287531673796
86902,B,0.03884969940774776
37117,B,0.3941408845871185
44872,B,0.023995578447657356
62967,B,0.0794468582111019
67998,B,0.02009495662376089
47253,B,0.24992392038234731
82914,B,0.47050211622532256
5937,B,0.022909072843393836
99554,B,0.06467808022931058
2857,B,0.01496629377494737
70063,B,0.055771916221817826
954,B,0.21553531653235447
36440,B,0.051687944106210824
93336,B,0.08020916192309088
14105,B,0.04334151746241051
97673,B,0.07102539311108724
70061,B,0.28301558390106607
11147,B,0.005927248550114766
12894,B,0.15043700838102472
5504,B,0.0378973493052888
6426,B,0.1136196532813326
7994,B,0.025501020960265
98949,B,0.13190116267907862
82109,B,0.0199895461434799
57198,B,0.013535348936671698
44155,B,0.09927900038891836
27516,B,0.2292581388520473
70558,B,0.041748409157819
26910,B,0.012270097939947126
53940,B,0.039446680748607243
29068,B,0.08814759846834051
77846,B,0.06028380836084219
96693,B,0.04312891945432511
69492,B,0.0046144345096370675
5752,B,0.00477238792762422
47791,B,0.1382089356377434
48004,B,0.0921827671799402
86782,B,0.015273280769181241
33891,B,0.005509679029113423
23568,B,0.41034848148974956
32737,B,0.12357880812093158
69369,B,0.07956941584900255
67577,B,0.11596004200124355
56713,B,0.05322866533064262
28734,B,0.046040910000646695
92356,B,0.39433033613853813
68566,B,0.16580993862854598
48890,B,0.17845067594257819
50112,B,0.05465593394855781
43400,B,0.0442285551290803
3019,B,0.11039346246088497
36312,B,0.019344104607726197
62683,B,0.01768080228800521
29742,B,0.012985855050964263
70259,B,0.01570900048119879
68768,B,0.030391474914586984
80720,B,0.00972451210590594
58190,B,0.013820721358300028
50923,B,0.007479597322738391
77824,B,0.007997243931587768
29434,B,0.040826668830008794
21613,B,0.06462473016059474
38797,B,0.017514084420739602
99650,B,0.048456770639325436
31829,B,0.005010809036322988
93096,B,0.05642088210318271
85937,B,0.08689530124673561
22287,B,0.03573660700390207
26584,B,0.027005485042315626
38422,B,0.2469700143257893
93213,B,0.0664946054392933
55351,B,0.12757340913716408
54515,B,0.012452144845484988
85175,B,0.05942034541003005
33383,B,0.11088049257355058
29428,B,0.06381319981548496
32134,B,0.03320747103702482
81620,B,0.13824696187338736
85646,B,0.10056213042246087
97312,B,0.011782571082671084
58158,B,0.042660752259376454
56268,B,0.03418136256620862
18754,B,0.009706198886372813
51564,B,0.16031481274056658
66216,B,0.03642601037658164
96506,B,0.27511904372544765
38926,B,0.018722320024001708
3722,B,0.06463161522724555
51885,B,0.012060045906722144
24986,B,0.08000509075476575
8527,B,0.059999817746622885
95707,B,0.02558145860172595
22271,B,0.01795520811732274
62146,B,0.2361703330600678
6224,B,0.08655259183991554
68104,B,0.20163974460581907
82938,B,0.025248286450201142
10173,B,0.03073293160520144
11970,B,0.060949774045063555
69617,B,0.11088044923398502
71566,B,0.021848152032521533
190,B,0.05377615257438567
53184,B,0.05732228229594536
37629,B,0.1102205338723191
32103,B,0.08234297308220902
92470,B,0.03832936032799086
34995,B,0.015973665413374014
16843,B,0.23077319272176997
4449,B,0.04586868707695521
83244,B,0.06212257859282913
57847,B,0.08018571878093428
55595,B,0.10395990867172736
61357,B,0.03894215637144159
67142,B,0.04877131237367461
69020,B,0.08668765225688092
73329,B,0.061264326234597447
501,B,0.12094125644122307
84512,B,0.033853359768758653
9821,B,0.34218146809591726
6937,B,0.0240194498574219
95740,B,0.08434717836715465
31247,B,0.022109186941610078
30060,B,0.012135788717352753
45870,B,0.030470538652412026
61834,B,0.03837065762050631
77939,B,0.036091336641874194
71043,B,0.014237504210271071
43470,B,0.0270991239026483
68761,B,0.023848950171867573
1443,B,0.033696931256488656
60086,B,0.06896602475280922
71664,B,0.043662618677500334
30373,B,0.16715654984363768
66877,B,0.14201497777130756
76924,B,0.08656305733739397
87271,B,0.029846060209757053
45711,B,0.09224708380913726
91080,B,0.024817112643640477
93649,B,0.036649808677888106
59583,B,0.022543409299306753
8355,B,0.02276465757280373
87098,B,0.04648982223378201
68215,B,0.007132927183572669
6781,B,0.2951144122309938
95389,B,0.04990286795855595
41893,B,0.009621108634045812
26737,B,0.00756484102328983
71758,B,0.020820204419943054
71960,B,0.041038559957225676
75740,B,0.0939055919791847
84970,B,0.018085763036900442
20562,B,0.01847888486845867
94848,B,0.27666454804053775
50537,B,0.25030042260006624
94109,B,0.627706918014625
85443,B,0.014390421197517935
93276,B,0.01795136362600342
33808,B,0.057439158371757386
15081,B,0.04669211347989977
79842,B,0.00783528084639405
98399,B,0.031037898108778387
1724,B,0.010954041200886371
66669,B,0.0076413952410463865
47776,B,0.13505257154254502
5385,B,0.671655766470451
74641,B,0.03226067121630735
40999,B,0.04110021945689806
39896,B,0.007966578219945253
81250,B,0.03489469009672231
81513,B,0.06664871476429364
10543,B,0.022624722384076805
58759,B,0.05150373244727252
89128,B,0.15829956913002988
2640,B,0.06198841033297549
6447,B,0.12170610364888478
4313,B,0.08875536135677368
96110,B,0.17381225182683951
47661,B,0.15789159482214207
81176,B,0.05996816409644259
98805,B,0.08041641813551641
59919,B,0.024735798512101382
80724,B,0.010172403573268209
28959,B,0.04461634237617569
83944,B,0.04187217650280908
79528,B,0.08490297936576115
15050,B,0.04956266827898432
87388,B,0.10405720359379438
45343,B,0.010843474180408218
38064,B,0.062172242331342734
47402,B,0.010333335362169696
20326,B,0.015413963163380668
73820,B,0.04099165345463814
2886,B,0.06648556864877163
24492,B,0.030862440559819248
99422,B,0.013007917059029808
85230,B,0.00615292437123661
53275,B,0.13459905574621867
15959,B,0.08053481110462302
33917,B,0.021848823058544447
4907,B,0.2057531187531469
18852,B,0.43712681956317095
44849,B,0.0789433950522613
82600,B,0.15192810295714385
57766,B,0.04211203229976369
66676,B,0.041285799078844214
43042,B,0.10211255811085321
36007,B,0.2948610690923913
98205,B,0.01574150310617736
84768,B,0.0201515665734482
25369,B,0.01130701369357759
70884,B,0.019572481043668863
6259,B,0.013425424383662945
16832,B,0.021777572219068352
53883,B,0.05311525812120215
7776,B,0.26621115245375443
22236,B,0.01875777544821821
97615,B,0.11920007100203849
42362,B,0.01881093498113701
41404,B,0.013975348477006865
4511,B,0.05336337819658122
31649,B,0.03173846012112262
98710,B,0.1619591098503655
65501,B,0.3295778872036679
17776,B,0.08315095107721482
44267,B,0.2926544692557618
3057,B,0.27466732016587775
61916,B,0.11946474868651641
9422,B,0.04485981264455895
24020,B,0.01811655952546504
24058,B,0.15138754479367686
77315,B,0.3240233607451693
82349,B,0.014352547710387577
41703,B,0.11035320776459744
10632,B,0.043305176957970835
15456,B,0.017071122189177355
73534,B,0.026459499371504148
3391,B,0.0645979938897995
1925,B,0.008456341442608855
65101,B,0.012375839152136692
28926,B,0.014367664590520614
85262,B,0.07774874985564902
54420,B,0.14866461694496327
98268,B,0.02099059404237094
47028,B,0.0433414084434339
68249,B,0.030413036195933944
72521,B,0.015073346995899167
84649,B,0.15270170282411244
83365,B,0.03642767633726583
15696,B,0.29298332485777884
49279,B,0.13670977636366097
76904,B,0.04747161055658747
9745,B,0.11821105287458526
80957,B,0.08294648458352995
885,B,0.11209202068222439
52724,B,0.01819258420271038
86518,B,0.030651523205058318
64969,B,0.0338487507316083
24595,B,0.027259433906298612
17725,B,0.039372205443693256
37031,B,0.2024895423680686
59393,B,0.04416420121445682
45567,B,0.12377964712127168
55122,B,0.01404770257391491
14292,B,0.08955836727550082
14922,B,0.05029019019654471
62606,B,0.016080945212805862
95600,B,0.07300371516064012
22360,B,0.01808220135836279
27607,B,0.020719405250249394
30113,B,0.054409255469789995
81266,B,0.14678173317018176
99200,B,0.042415554024383205
17077,B,0.208369288645392
62004,B,0.025356440501470505
54750,B,0.19844152067357634
33615,B,0.09364160946614605
48,B,0.23404489783522905
46809,B,0.04654930664599564
29626,B,0.012351996744636138
22035,B,0.007556236863561951
26479,B,0.07401116372897347
11882,B,0.00741879071266939
72806,B,0.09794254144285311
15219,B,0.2752228591939289
8778,B,0.019745932618635227
74741,B,0.12829690685954437
26303,B,0.07764231498645197
7146,B,0.023757377951109458
89643,B,0.012757043706470178
25100,B,0.003752984627879741
91596,B,0.0656583292417606
42055,B,0.00853448330523331
76656,B,0.02823835082197443
28088,B,0.04398218881525216
48943,B,0.1281236424558816
26860,B,0.037038648896655785
86992,B,0.03853944261822942
15232,B,0.08329738161250838
15281,B,0.01992422485857745
85662,B,0.03491260775632527
68252,B,0.03707110451671439
47089,B,0.03949118279283394
88148,B,0.03491644487634808
83416,B,0.029204373390108746
79824,B,0.03389383544263588
51857,B,0.01697476348859976
40614,B,0.05647273996705091
48013,B,0.023789912923940053
52090,B,0.012760260850949695
88689,B,0.09028074176277338
95049,B,0.011731135528226317
25947,B,0.022798499504881185
52975,B,0.02468939596426085
38277,B,0.010363170884648568
41698,B,0.007071666602922372
85719,B,0.02484768681872773
508,B,0.10842306795828555
4516,B,0.09339311403887775
42250,B,0.1359378306829882
68811,B,0.006109363588662769
18634,B,0.022203443101143895
24843,B,0.03292791926716627
52308,B,0.03927352589236569
25951,B,0.14535943393332834
62345,B,0.00861619782577909
30424,B,0.06843597864110663
27501,B,0.1999035131907167
7222,B,0.045092595549305205
98147,B,0.02442661839801022
20053,B,0.03107647862226983
4042,B,0.024825352720011795
2846,B,0.026253240253093835
1372,B,0.029941954435066545
54371,B,0.36360125707265806
51686,B,0.007068634628092012
34445,B,0.039485264198609996
78045,B,0.05518840479150602
10215,B,0.035350132154249904
46422,B,0.07862215852729722
32759,B,0.30208582960641034
36492,B,0.026212402961775804
52161,B,0.03521509766120516
56560,B,0.07212828903791277
82968,B,0.049525444061127764
93695,B,0.11859851487890019
95401,B,0.03448571755894855
61358,B,0.1318359075757405
74908,B,0.01479823919285824
95470,B,0.12423195705026273
75334,B,0.16720969150584183
17074,B,0.0071683104258407696
88223,B,0.02888115172297764
49091,B,0.013522521757083607
40080,B,0.019325075713140266
87083,B,0.19582222132803725
66593,B,0.05282901905134638
13584,B,0.20060870930782232
57292,B,0.18773833650753285
77331,B,0.039547092212116226
49025,B,0.31225147118605634
78630,B,0.06138417520694579
29341,B,0.09344757458924535
10032,B,0.04754043115909581
43864,B,0.09950900121303864
78818,B,0.0764478561017879
78374,B,0.01761794222137722
49024,B,0.02174166111229132
49266,B,0.0767994860642578
35237,B,0.013899435016750552
80213,B,0.2787826717272317
4258,B,0.06386376776253415
18357,B,0.011975455615002017
5517,B,0.05339859531321276
38127,B,0.029628802452277163
31177,B,0.4848820053516765
73856,B,0.011157170878452671
49874,B,0.011518585809829032
24838,B,0.5332519308247752
61569,B,0.08598638865119046
62209,B,0.06701990104081068
39660,B,0.021386890925946606
23293,B,0.004150214403280281
23472,B,0.11559265300120601
35087,B,0.003382420285338663
14201,B,0.12210773467046707
60745,B,0.026802120750041156
79637,B,0.014451083046660892
32231,B,0.0748127431627849
88420,B,0.01484798374964506
25863,B,0.013052552545844604
13132,B,0.004051354099922978
52480,B,0.09582838523323897
40928,B,0.03638327027155886
33846,B,0.004805638702631014
57495,B,0.02814613771418754
22400,B,0.3240056578665524
46077,B,0.0065661372827178505
62097,B,0.0683625822493497
13539,B,0.17745911892442284
40317,B,0.1771559006149298
53915,B,0.1775468289325006
64719,B,0.06709158033667205
2891,B,0.02683421168879534
26177,B,0.012642907546298853
85831,B,0.02030502359457352
45896,B,0.010752635338986937
65920,B,0.021949647861117087
345,B,0.06601049150274035
5592,B,0.05410022554007453
44938,B,0.15677054199791102
80899,B,0.07287782231708764
82878,B,0.022574753448254485
51598,B,0.010411463035590693
20263,B,0.1168910878081739
42157,B,0.07350955788155526
43826,B,0.011941135733731685
56025,B,0.12181762892612408
92900,B,0.11595535794628913
12654,B,0.01454198693340483
49107,B,0.10888356720173112
92978,B,0.036104620373660384
62499,B,0.11890599535248993
92824,B,0.01021363364042545
15477,B,0.12018464170402308
47502,B,0.21451657659935447
8137,B,0.03348170289224889
25087,B,0.07631795767038833
82540,B,0.02574979855004333
21482,B,0.020790499885905284
10134,B,0.02263095859219639
7112,B,0.022002483155665303
63359,B,0.02564224314107202
89954,B,0.019825837437383264
67499,B,0.025571367494307523
9705,B,0.4338910506847437
41920,B,0.040700528733414544
61319,B,0.02200330924133962
35165,B,0.15555712627827153
23317,B,0.03301179025390338
62805,B,0.026294562905902222
28483,B,0.35344341762824816
92597,B,0.11554021182595531
58358,B,0.02282351096462834
86711,B,0.0399689758136247
64846,B,0.05325747564843554
13643,B,0.03009343013533895
66960,B,0.014615206069925949
99413,B,0.019056053400081967
38061,B,0.009795078507465905
7545,B,0.0018423788810773816
57907,B,0.029653694837077717
68031,B,0.006764202471219436
98150,B,0.027373766613429915
12360,B,0.023234797250956733
94135,B,0.026841665329821265
68191,B,0.022991844755234737
30989,B,0.020878061328797465
64251,B,0.027448178469010858
98219,B,0.03851635815520675
37904,B,0.08107724135702132
25971,B,0.02668468067105552
73027,B,0.045834687608164254
76522,B,0.04394397814919342
181,B,0.14953939019104556
97770,B,0.061140104462451536
29712,B,0.2552174874654203
31189,B,0.022851952675481978
82228,B,0.062109364034467505
82053,B,0.032341066701536865
19397,B,0.07944646325194307
73603,B,0.015561574589367319
76084,B,0.0944080197099982
68076,B,0.016771215072669446
59540,B,0.014150535755279366
34534,B,0.1233482488780787
50766,B,0.006151280146228828
42688,B,0.07172727134280112
82366,B,0.008259277350121287
58918,B,0.26447070397923367
60503,B,0.066516119188733
77931,B,0.07282812607876163
59546,B,0.054280991163497216
15024,B,0.015975213072609986
17543,B,0.036324871896648334
34034,B,0.13122333861186194
47369,B,0.011559974607744048
46825,B,0.014610805718321416
50144,B,0.07499812788079882
30800,B,0.006080459248016391
56929,B,0.013593566976298103
92965,B,0.003395710798170494
45539,B,0.21368527499243928
67325,B,0.03550529146406757
17316,B,0.038270042107970276
36275,B,0.09275184227786637
80597,B,0.14370791440667757
95795,B,0.08515290308409448
78565,B,0.05260414711947102
29231,B,0.36476814358714016
47373,B,0.01945010157297564
12276,B,0.021593594247055897
92385,B,0.023358917781648076
42436,B,0.08813680475735156
45889,B,0.10626644216832287
6151,B,0.024520186520775873
90588,B,0.023083539102053824
98608,B,0.01035737089196182
98037,B,0.020181728408621098
40552,B,0.21770125555129885
54107,B,0.3918100407797326
74978,B,0.00785728023530408
47537,B,0.028635028419634157
80864,B,0.14794235590141402
96339,B,0.027660732997665135
13951,B,0.03174912313804147
30453,B,0.004510126186380782
23516,B,0.025816807043965866
83402,B,0.030465369707182173
79719,B,0.11117771516021965
55610,B,0.06604269258548179
42658,B,0.0184093506117065
47175,B,0.06562800753597013
51493,B,0.0072408605456192755
44747,B,0.03411386187759167
32500,B,0.011203015621851721
14108,B,0.0035447937560111834
6278,B,0.021701106856895885
62316,B,0.036629932874419326
32578,B,0.07331329866372692
60340,B,0.09832456301724656
4407,B,0.0061125772004168525
26439,B,0.0705693086640834
61015,B,0.057756469190477465
42010,B,0.24703361006496644
16530,B,0.004850044257222795
90283,B,0.01172593950398559
12511,B,0.19785580695541102
56491,B,0.08688819495642032
70911,B,0.025622158929547056
23880,B,0.04340769438986042
51581,B,0.027679856694170557
95554,B,0.08591348677952731
27272,B,0.13203722801745937
72019,B,0.06459351913740559
62012,B,0.04066690531191013
65119,B,0.04473232129312011
58441,B,0.032477815784092375
22183,B,0.013190756827861132
11206,B,0.034260637658462025
22889,B,0.009965650771936896
55799,B,0.22713493681966335
57851,B,0.07801258224854746
33292,B,0.04895681135287066
36148,B,0.08425925014648776
36093,B,0.029655342675116006
13620,B,0.01379574046792533
12002,B,0.03886126691153851
99656,B,0.018568702197340654
96058,B,0.004501850427663684
13704,B,0.014188906940086374
44853,B,0.010621337328356214
31250,B,0.06518394073109333
43608,B,0.15566030626062866
33144,B,0.21770861664660385
80156,B,0.01981912065674079
57652,B,0.034593455596752684
65528,B,0.10196339849470291
8660,B,0.03003962440290754
24407,B,0.573417722694923
40198,B,0.30262063138150036
4039,B,0.32800353703622964
97088,B,0.0025023437457701936
70580,B,0.019709626677975052
52594,B,0.02481660102209076
78010,B,0.645962830168165
93316,B,0.03127529365361078
31737,B,0.11682465224252285
86089,B,0.06708285583195578
61811,B,0.046270508890804155
22321,B,0.2560826569513652
72634,B,0.005103883306443247
63768,B,0.021137273817566977
42583,B,0.0893247434664084
22682,B,0.03066754256430633
70274,B,0.012877807979392968
46448,B,0.061744434239756216
55491,B,0.00930064872716866
98042,B,0.08240736941542985
1405,B,0.11966940764848731
93460,B,0.08866605395259854
9074,B,0.0219015126292747
8391,B,0.13318495889136767
76384,B,0.008630578488949039
14810,B,0.5360873595117149
39885,B,0.047533794692298896
80138,B,0.46481782155724527
54171,B,0.0628577509994282
16637,B,0.034656488613793814
85671,B,0.47234270270483103
28858,B,0.011878252627888643
25617,B,0.06708623275616059
53876,B,0.025344487278603903
40826,B,0.05426053806310594
8486,B,0.013923101251852907
80175,B,0.028582442594667783
36517,B,0.07308284636573041
92903,B,0.21273381494780833
78785,B,0.15883157200785705
72472,B,0.02867785644377229
88373,B,0.00829941853564414
4216,B,0.18234359343166878
56649,B,0.013228326226973173
53088,B,0.023341274184422726
4895,B,0.4062402529786297
87402,B,0.09345902727046386
2054,B,0.05025241845254968
17153,B,0.05360942967635391
54961,B,0.03145916861275602
86501,B,0.032966273342494475
60558,B,0.042682710711080714
338,B,0.14765882546450554
34589,B,0.010637488906215622
84164,B,0.23268160899862966
7047,B,0.20021701048173754
80439,B,0.010023869431069417
85211,B,0.009395693930624168
66134,B,0.024662511135301775
22592,B,0.1513567312698098
15276,B,0.0076935459070037885
45403,B,0.021087114015992624
56177,B,0.03640515072883603
30432,B,0.05292056287961368
46781,B,0.009767200069247887
66265,B,0.26747136551913214
16391,B,0.022002441503819806
79568,B,0.09130099181410424
74013,B,0.20052097894197682
11742,B,0.04201892770108383
29639,B,0.027826345730002682
19593,B,0.03516033346407004
61519,B,0.10455559644463651
17217,B,0.07199635662731492
58824,B,0.013814464277443815
41748,B,0.058430152491165094
40602,B,0.022932550070798318
53814,B,0.030897324811610706
76723,B,0.013863544412059824
35617,B,0.05440228469212711
66952,B,0.009619423422186702
68661,B,0.07468191156357089
57497,B,0.21500963858486907
38261,B,0.033404929020454
20808,B,0.07165771000938596
4485,B,0.005554162170698835
22901,B,0.11609174798057773
6238,B,0.01804333899187761
59923,B,0.025721510722493495
50487,B,0.1299565593890397
78935,B,0.020292259768048874
9461,B,0.0653335547806242
43109,B,0.0742439151358949
94696,B,0.024378864174451682
7076,B,0.012476254132241675
6368,B,0.1363604955747597
57390,B,0.04362732578488279
94023,B,0.03328227465978819
45614,B,0.0840530079229925
96946,B,0.02046699764166672
22254,B,0.03812333444636847
63297,B,0.18586583026357642
44304,B,0.016612042756822237
80784,B,0.10413102862548765
46097,B,0.03888701716816203
78147,B,0.28514885521138966
26540,B,0.0733130005649814
96010,B,0.08643115469291604
10452,B,0.1705389864329916
34386,B,0.015969478486801848
7642,B,0.04161652583638346
33361,B,0.02890988784957079
89501,B,0.01092332606421946
46198,B,0.007327294186337046
62204,B,0.1236598549961891
75145,B,0.2580129673670122
98312,B,0.017232954587544615
91826,B,0.015521621881444143
77962,B,0.02169490515385081
18813,B,0.09335469757842024
48566,B,0.15077418603229645
3844,B,0.11581557984521879
95592,B,0.011959984217754358
44943,B,0.008640782640905297
80767,B,0.04972301410584004
93364,B,0.04803263380392143
59696,B,0.07754354407142021
57933,B,0.05251210067741242
81745,B,0.01931548439550645
71814,B,0.023618101967457953
3254,B,0.027894088227149203
92365,B,0.009983510880527938
93034,B,0.05752285558677195
71941,B,0.075233055668811
3649,B,0.12875268040997037
87286,B,0.01459606282981858
37584,B,0.24524102889603466
93445,B,0.05351362709255557
92873,B,0.09051075402432338
95767,B,0.020424636338590065
85656,B,0.05732652707077988
53963,B,0.12142825656272359
96140,B,0.08715261290023887
9833,B,0.10323974365979809
15852,B,0.04066259270213787
38703,B,0.019217176115067885
40541,B,0.010416436188780506
11159,B,0.011315902328195186
25303,B,0.021681150718948456
26206,B,0.03571350275272362
57805,B,0.050101516616408555
3091,B,0.20527330508406277
60085,B,0.007486784339593076
22917,B,0.010604558380009139
60823,B,0.027701284292403226
28459,B,0.023663107684639726
84905,B,0.04487811338979698
64211,B,0.04221171882043273
89937,B,0.02521182431122582
63777,B,0.052519348476823116
80118,B,0.15158697252854855
60349,B,0.03231992271869529
20591,B,0.005907887244141345
6049,B,0.05150493352295711
46303,B,0.15584132543423718
15377,B,0.019359365578454097
54737,B,0.07836750174121564
94306,B,0.013636028129013758
41586,B,0.02479501492826836
73365,B,0.495820998545841
8022,B,0.003804777130820894
90940,B,0.04454332754248686
85068,B,0.03823097433682895
77750,B,0.013103667389923433
14092,B,0.014165937075657413
58714,B,0.046934751323892375
22202,B,0.03221318898055821
85467,B,0.03628838461126858
42493,B,0.021621772190269655
5207,B,0.01685255661687652
73604,B,0.02370614199025073
66781,B,0.02018086679582583
99801,B,0.16797726937578245
38525,B,0.009932410134809241
70201,B,0.015316179366264731
36381,B,0.007670261163905292
89792,B,0.0762307781417981
63025,B,0.2566410470200151
14133,B,0.03384046757330796
80496,B,0.06873774510948658
36166,B,0.08096164590602486
30626,B,0.01748468566918249
74906,B,0.13404937156868824
29532,B,0.0212427508142782
85839,B,0.04575515257558231
30103,B,0.06657739248987413
49964,B,0.016246594381124645
88410,B,0.06711726820275275
26794,B,0.1810550886458759
78070,B,0.06610675902890763
96802,B,0.013643898266614789
55615,B,0.2872657862698604
42382,B,0.011113230557697551
45506,B,0.06515336439421829
16963,B,0.011640627013401142
27452,B,0.02731004929021493
44221,B,0.040618807960893295
15712,B,0.013590208621948012
55561,B,0.0650887433120936
86841,B,0.042465307916642145
24333,B,0.01280909456175104
3092,B,0.031093330548477557
36013,B,0.15644047922556834
51583,B,0.029131234412570848
75343,B,0.02766590109208826
77160,B,0.03540352181678264
69734,B,0.042042678452196496
65303,B,0.01744842402183896
45834,B,0.03710433000895829
80366,B,0.20977982087949892
71375,B,0.09385651745517198
35744,B,0.03524271235844738
46099,B,0.009161355014363493
30519,B,0.013480633258436708
64794,B,0.052907764246757624
33971,B,0.017579325934383768
28104,B,0.0487206266361346
52739,B,0.10480606547576246
